<svg width="128" height="128" viewBox="0 0 128 128" fill="none" xmlns="http://www.w3.org/2000/svg">
<path fill-rule="evenodd" clip-rule="evenodd" d="M56.4375 14.0625L56.4375 92.9506L21.9549 58.468C19.205 55.7181 14.7465 55.7181 11.9966 58.468C11.9908 58.4739 11.9849 58.4797 11.9791 58.4856C9.22637 61.2579 9.23428 65.7343 11.9968 68.4967L63.5 120L115.021 68.4791C117.771 65.7292 117.771 61.2708 115.021 58.5209C112.27 55.7704 107.811 55.7684 105.058 58.5165L70.5625 92.9506V14.0625C70.5625 10.162 67.4005 7 63.5 7C59.5995 7 56.4375 10.162 56.4375 14.0625Z" fill="black"/>
</svg>
