<svg width="128" height="128" viewBox="0 0 128 128" fill="none" xmlns="http://www.w3.org/2000/svg">
<path d="M89.9005 106.599C88.4262 113.013 84.6723 113.607 78.6387 108.381L39.921 68.412C37.262 65.6672 37.2959 61.2971 39.9971 58.5938L79.9971 18.5624C85.126 14.6575 88.4272 15.3068 89.9005 20.5102V106.599Z" fill="black"/>
</svg>
