<svg width="128" height="128" viewBox="0 0 128 128" fill="none" xmlns="http://www.w3.org/2000/svg">
<path d="M37.9488 21.3526C39.4231 14.9387 43.177 14.3449 49.2106 19.5712L87.9283 59.5399C90.5872 62.2847 90.5533 66.6548 87.8522 69.3581L47.8522 109.389C42.7232 113.294 39.4221 112.645 37.9488 107.442L37.9488 21.3526Z" fill="black"/>
</svg>
