<svg width="128" height="128" viewBox="0 0 128 128" fill="none" xmlns="http://www.w3.org/2000/svg">
<path fill-rule="evenodd" clip-rule="evenodd" d="M70.5625 112.937L70.5625 34.0494L105.045 68.532C107.795 71.2819 112.254 71.2819 115.003 68.532C115.009 68.5261 115.015 68.5203 115.021 68.5144C117.774 65.7421 117.766 61.2657 115.003 58.5033L63.5 7L11.9791 58.5209C9.22923 61.2708 9.22923 65.7292 11.9791 68.4791C14.7297 71.2296 19.1886 71.2316 21.9417 68.4835L56.4375 34.0494L56.4375 112.937C56.4375 116.838 59.5995 120 63.5 120C67.4005 120 70.5625 116.838 70.5625 112.937Z" fill="black"/>
</svg>
