<?xml version="1.0" encoding="UTF-8"?>
<svg width="128px" height="128px" viewBox="0 0 128 128" version="1.1" xmlns="http://www.w3.org/2000/svg" xmlns:xlink="http://www.w3.org/1999/xlink">
    <!-- Generator: Sketch 52.6 (67491) - http://www.bohemiancoding.com/sketch -->
    <title>box</title>
    <desc>Created with Sketch.</desc>
    <g id="box" stroke="none" stroke-width="1" fill="none" fill-rule="evenodd">
        <path d="M58.0400141,11.8486328 L30.8072018,11.8486328 C30.4892022,11.8486328 30.1901597,11.9998791 30.0017107,12.256025 L15.1080185,32.5 L58.152714,32.5 L58.0400141,11.8486328 Z M70.0401928,11.8486328 L70.1528927,32.5 L110.822007,32.5 L94.6289466,12.2245789 C94.4391896,11.9869831 94.1516368,11.8486328 93.8475653,11.8486328 L70.0401928,11.8486328 Z M64.2019185,44.5 L58.2183793,44.5326537 L58.2182011,44.5 L11.734375,44.5 L11.734375,115.111328 C11.734375,115.663613 12.1820903,116.111328 12.734375,116.111328 L115.636719,116.111328 C116.189003,116.111328 116.636719,115.663613 116.636719,115.111328 L116.636719,44.5 L64.2019185,44.5 Z M57.9745269,-0.151367188 L57.9673463,-1.46716758 L69.9671676,-1.53265374 L69.9747056,-0.151367188 L93.8475653,-0.151367188 C97.8004954,-0.151367188 101.538681,1.64718666 104.005522,4.7359324 L125.794676,32.018252 C127.634555,34.3219747 128.636719,37.1826829 128.636719,40.1309524 L128.636719,115.111328 C128.636719,122.29103 122.81642,128.111328 115.636719,128.111328 L12.734375,128.111328 C5.55467325,128.111328 -0.265625,122.29103 -0.265625,115.111328 L-0.265625,37.4137877 C-0.265625,34.6419144 0.620356251,31.9426058 2.26298995,29.7098864 L20.3358168,5.14473152 C22.7856548,1.81483463 26.6732062,-0.151367188 30.8072018,-0.151367188 L57.9745269,-0.151367188 Z" id="Combined-Shape" fill="#000000" fill-rule="nonzero"></path>
    </g>
</svg>