<svg width="128" height="128" viewBox="0 0 128 128" fill="none" xmlns="http://www.w3.org/2000/svg">
<path fill-rule="evenodd" clip-rule="evenodd" d="M0 23.8139C0 10.6618 10.7452 0 24 0H104C117.255 0 128 10.6618 128 23.8139V75.9068C128 89.0588 117.255 99.7207 104 99.7207H68.2228C64.5503 99.7207 61.0799 101.389 58.8042 104.25L41.7093 125.735C40.126 127.725 37.4461 128.502 35.0322 127.67C32.6183 126.839 31 124.582 31 122.046V103.69C31 101.498 29.2091 99.7207 27 99.7207H24C10.7452 99.7207 0 89.0588 0 75.9068V23.8139ZM24 11.9069C17.3726 11.9069 12 17.2379 12 23.8139V75.9068C12 82.4828 17.3726 87.8137 24 87.8137H27C35.8366 87.8137 43 94.9216 43 103.69V104.897L49.3856 96.8715C53.937 91.1511 60.8777 87.8137 68.2228 87.8137H104C110.627 87.8137 116 82.4828 116 75.9068V23.8139C116 17.2379 110.627 11.9069 104 11.9069H24Z" fill="#040404"/>
<path d="M43 49.6123C43 55.0923 38.5228 59.5347 33 59.5347C27.4772 59.5347 23 55.0923 23 49.6123C23 44.1322 27.4772 39.6898 33 39.6898C38.5228 39.6898 43 44.1322 43 49.6123Z" fill="#040404"/>
<path d="M74 49.6123C74 55.0923 69.5229 59.5347 64 59.5347C58.4772 59.5347 54 55.0923 54 49.6123C54 44.1322 58.4772 39.6898 64 39.6898C69.5229 39.6898 74 44.1322 74 49.6123Z" fill="#040404"/>
<path d="M105 49.6123C105 55.0923 100.523 59.5347 95 59.5347C89.4771 59.5347 85 55.0923 85 49.6123C85 44.1322 89.4771 39.6898 95 39.6898C100.523 39.6898 105 44.1322 105 49.6123Z" fill="#040404"/>
</svg>
