<?xml version="1.0" encoding="UTF-8"?>
<svg width="128px" height="128px" viewBox="0 0 128 128" version="1.1" xmlns="http://www.w3.org/2000/svg" xmlns:xlink="http://www.w3.org/1999/xlink">
    <!-- Generator: Sketch 52.6 (67491) - http://www.bohemiancoding.com/sketch -->
    <title>calendar</title>
    <desc>Created with Sketch.</desc>
    <g id="calendar" stroke="none" stroke-width="1" fill="none" fill-rule="evenodd">
        <path d="M116,48 L12,48 L12,105 C12,111.075 16.9249,116 23,116 L105,116 C111.075,116 116,111.075 116,105 L116,48 Z M12,36 L116,36 L116,23 C116,16.9249 111.075,12 105,12 L23,12 C16.9249,12 12,16.9249 12,23 L12,36 Z M0,23 C0,10.2975 10.2975,0 23,0 L105,0 C117.703,0 128,10.2975 128,23 L128,105 C128,117.703 117.703,128 105,128 L23,128 C10.2975,128 0,117.703 0,105 L0,23 Z M78,69 C74.6862915,69 72,71.6862915 72,75 L72,87 C72,90.3137085 74.6862915,93 78,93 L90,93 C93.3137085,93 96,90.3137085 96,87 L96,75 C96,71.6862915 93.3137085,69 90,69 L78,69 Z" id="Combined-Shape" fill="#000000" fill-rule="nonzero"></path>
    </g>
</svg>