<?xml version="1.0" encoding="UTF-8"?>
<svg width="128px" height="128px" viewBox="0 0 128 128" version="1.1" xmlns="http://www.w3.org/2000/svg" xmlns:xlink="http://www.w3.org/1999/xlink">
    <!-- Generator: Sketch 52.6 (67491) - http://www.bohemiancoding.com/sketch -->
    <title>cart-1</title>
    <desc>Created with Sketch.</desc>
    <g id="cart-1" stroke="none" stroke-width="1" fill="none" fill-rule="evenodd">
        <path d="M98.1503682,96.2530147 C97.3583554,96.2878432 96.5492976,96.3000897 95.7236328,96.2896434 L51.04629,96.2896434 C58.4259042,97.7121441 64,104.205122 64,112 C64,120.836556 56.836556,128 48,128 C39.163444,128 32,120.836556 32,112 C32,103.604795 38.4657426,96.7197451 46.6891524,96.0529259 C36.9123027,94.7849398 30.8794997,88.4664382 29.9289461,78.1480485 L20.6588939,33.2122463 C20.6108955,32.9795778 20.5770029,32.74782 20.5565686,32.5177681 C18.480311,19.0037253 13.5176514,12.7672589 5.53212029,11.9703443 C2.23479018,11.6412879 -0.171471065,8.70152072 0.157585379,5.4041906 C0.486641823,2.10686049 3.42640897,-0.299400752 6.72373908,0.0296556915 C19.7125788,1.32587453 28.0163658,10.4487562 31.5312792,26 L109.240234,26 C123.213771,26 129.981256,34.6175503 127.057032,48.4283263 C124.998073,59.6532743 123.016619,69.6911761 121.111871,78.5444015 C118.919456,88.7346968 111.844785,94.6613278 101.168354,96.0008674 C109.927362,96.0911631 117,103.21963 117,112 C117,120.836556 109.836556,128 101,128 C92.163444,128 85,120.836556 85,112 C85,104.13603 90.6733496,97.5971409 98.1503682,96.2530147 Z M33.8992723,38 L41.7529713,76.0701488 C41.8033982,76.3145891 41.8385237,76.5619377 41.8581431,76.810753 C42.2918353,82.3109005 44.5155293,84.2896434 50.4941406,84.2896434 C67.0935872,84.2896434 67.0935872,84.2896434 95.7993293,84.2901209 C104.251249,84.3967595 108.134865,81.8092189 109.380317,76.0203887 C111.262464,67.272209 113.225724,57.324506 115.269292,46.1796673 L115.304324,46.0035172 C116.695202,39.5188015 115.507904,38 109.240234,38 L33.8992723,38 Z" id="Combined-Shape" fill="#000000" fill-rule="nonzero"></path>
    </g>
</svg>