<svg width="128" height="128" viewBox="0 0 128 128" fill="none" xmlns="http://www.w3.org/2000/svg">
<path d="M64 47C53.5066 47 45 38.4934 45 28C45 17.5066 53.5066 9 64 9C74.4934 9 83 17.5066 83 28C83 38.4934 74.4934 47 64 47ZM64 37C68.9706 37 73 32.9706 73 28C73 23.0294 68.9706 19 64 19C59.0294 19 55 23.0294 55 28C55 32.9706 59.0294 37 64 37Z" fill="black"/>
<path d="M19 119C8.50659 119 0 110.493 0 100C0 89.5066 8.50659 81 19 81C29.4934 81 38 89.5066 38 100C38 110.493 29.4934 119 19 119ZM19 109C23.9706 109 28 104.971 28 100C28 95.0294 23.9706 91 19 91C14.0294 91 10 95.0294 10 100C10 104.971 14.0294 109 19 109Z" fill="black"/>
<path d="M64 119C53.5066 119 45 110.493 45 100C45 89.5066 53.5066 81 64 81C74.4934 81 83 89.5066 83 100C83 110.493 74.4934 119 64 119ZM64 109C68.9706 109 73 104.971 73 100C73 95.0294 68.9706 91 64 91C59.0294 91 55 95.0294 55 100C55 104.971 59.0294 109 64 109Z" fill="black"/>
<path d="M109 119C98.5066 119 90 110.493 90 100C90 89.5066 98.5066 81 109 81C119.493 81 128 89.5066 128 100C128 110.493 119.493 119 109 119ZM109 109C113.971 109 118 104.971 118 100C118 95.0294 113.971 91 109 91C104.029 91 100 95.0294 100 100C100 104.971 104.029 109 109 109Z" fill="black"/>
<path fill-rule="evenodd" clip-rule="evenodd" d="M25 87.3395H13V72C13 63.2151 20.0164 56 28.7872 56H101.213C109.984 56 117 63.2151 117 72V87.2474H105V72C105 69.7118 103.226 68 101.213 68H28.7872C26.7742 68 25 69.7118 25 72V87.3395Z" fill="black"/>
<path d="M58 43H70V85H58V43Z" fill="black"/>
</svg>
