<?xml version="1.0" encoding="UTF-8"?>
<svg width="128px" height="128px" viewBox="0 0 128 128" version="1.1" xmlns="http://www.w3.org/2000/svg" xmlns:xlink="http://www.w3.org/1999/xlink">
    <!-- Generator: Sketch 52.6 (67491) - http://www.bohemiancoding.com/sketch -->
    <title>circle-minus</title>
    <desc>Created with Sketch.</desc>
    <g id="circle-minus" stroke="none" stroke-width="1" fill="none" fill-rule="evenodd">
        <path d="M31,64 C31,60.6863 33.6863,58 37,58 L91,58 C94.3137,58 97,60.6863 97,64 C97,67.3137 94.3137,70 91,70 L37,70 C33.6863,70 31,67.3137 31,64 Z M128,64 C128,99.3462 99.3462,128 64,128 C28.6538,128 0,99.3462 0,64 C0,28.6538 28.6538,0 64,0 C99.3462,0 128,28.6538 128,64 Z M116,64 C116,35.2812 92.7188,12 64,12 C35.2812,12 12,35.2812 12,64 C12,92.7188 35.2812,116 64,116 C92.7188,116 116,92.7188 116,64 Z" id="Combined-Shape" fill="#000000"></path>
    </g>
</svg>