<svg width="128" height="128" viewBox="0 0 128 128" fill="none" xmlns="http://www.w3.org/2000/svg">
<path d="M41.3191 34.8352C39.0189 32.4498 35.2205 32.3808 32.8352 34.6809C30.4498 36.9811 30.3808 40.7795 32.6809 43.1648L59.6809 71.1648C61.6397 73.1961 64.7492 73.588 67.1507 72.1062L90.6507 57.6062C93.4707 55.8662 94.3463 52.1694 92.6062 49.3494C90.8662 46.5293 87.1694 45.6537 84.3494 47.3938L64.9635 59.3553L41.3191 34.8352Z" fill="black"/>
<path fill-rule="evenodd" clip-rule="evenodd" d="M128 64C128 99.3462 99.3462 128 64 128C28.6538 128 0 99.3462 0 64C0 28.6538 28.6538 0 64 0C99.3462 0 128 28.6538 128 64ZM116 64C116 92.7188 92.7188 116 64 116C35.2812 116 12 92.7188 12 64C12 35.2812 35.2812 12 64 12C92.7188 12 116 35.2812 116 64Z" fill="black"/>
</svg>
