<?xml version="1.0" encoding="UTF-8"?>
<svg width="128px" height="128px" viewBox="0 0 128 128" version="1.1" xmlns="http://www.w3.org/2000/svg" xmlns:xlink="http://www.w3.org/1999/xlink">
    <!-- Generator: Sketch 52.6 (67491) - http://www.bohemiancoding.com/sketch -->
    <title>column</title>
    <desc>Created with Sketch.</desc>
    <g id="column" stroke="none" stroke-width="1" fill="none" fill-rule="evenodd">
        <path d="M16,12 C13.790861,12 12,13.790861 12,16 L12,112 C12,114.209139 13.790861,116 16,116 L42,116 C44.209139,116 46,114.209139 46,112 L46,16 C46,13.790861 44.209139,12 42,12 L16,12 Z M16,0 L42,0 C50.836556,-1.42108547e-15 58,7.163444 58,16 L58,112 C58,120.836556 50.836556,128 42,128 L16,128 C7.163444,128 1.42108547e-15,120.836556 0,112 L1.77635684e-15,16 C3.55271368e-16,7.163444 7.163444,1.42108547e-15 16,0 Z M86,12 C83.790861,12 82,13.790861 82,16 L82,112 C82,114.209139 83.790861,116 86,116 L112,116 C114.209139,116 116,114.209139 116,112 L116,16 C116,13.790861 114.209139,12 112,12 L86,12 Z M86,0 L112,0 C120.836556,-1.42108547e-15 128,7.163444 128,16 L128,112 C128,120.836556 120.836556,128 112,128 L86,128 C77.163444,128 70,120.836556 70,112 L70,16 C70,7.163444 77.163444,1.42108547e-15 86,0 Z" id="Combined-Shape" fill="#000000" fill-rule="nonzero"></path>
    </g>
</svg>