<?xml version="1.0" encoding="UTF-8"?>
<svg width="128px" height="128px" viewBox="0 0 128 128" version="1.1" xmlns="http://www.w3.org/2000/svg" xmlns:xlink="http://www.w3.org/1999/xlink">
    <!-- Generator: Sketch 52.6 (67491) - http://www.bohemiancoding.com/sketch -->
    <title>conf</title>
    <desc>Created with Sketch.</desc>
    <g id="conf" stroke="none" stroke-width="1" fill="none" fill-rule="evenodd">
        <g fill="#000000" id="Shape">
            <path d="M47.3877829,127.041488 C47.6594605,127.11293 47.9312372,127.144682 48.1965643,127.145674 C49.5596155,127.14369 50.8183814,126.270512 51.272831,124.922047 C53.052924,119.607566 58.0035473,116.040434 63.5843473,116.040434 C69.1650481,116.040434 74.1156713,119.613519 75.8957643,124.922047 C76.4350512,126.538419 78.1307039,127.465178 79.7809116,127.041488 C85.6150326,125.534264 91.2152806,123.213395 96.4386729,120.135442 C97.9524465,119.242419 98.4851845,117.30555 97.6471318,115.759628 C96.6141023,113.855504 96.0683659,111.697364 96.0683659,109.51938 C96.0683659,102.326574 101.895938,96.4778667 109.061953,96.4778667 C111.238946,96.4778667 113.382202,97.0255876 115.27938,98.0623876 C116.819349,98.9036155 118.749271,98.368893 119.639318,96.8494636 C122.705364,91.6132713 125.018295,85.9858357 126.518574,80.1300837 C126.941271,78.4738233 126.018481,76.778369 124.40707,76.2306481 C119.112434,74.443907 115.559194,69.4750264 115.559194,63.8735876 C115.559194,58.2722481 119.11938,53.3033674 124.40707,51.5166264 C126.018481,50.975355 126.941271,49.2734512 126.518574,47.6171907 C125.018295,41.7614388 122.705364,36.1404527 119.639318,30.8977116 C118.749271,29.3783814 116.819349,28.8436589 115.27938,29.6847876 C113.382202,30.7216868 111.232,31.2694078 109.061953,31.2694078 C101.895938,31.2694078 96.0683659,25.4202047 96.0683659,18.2276961 C96.0683659,16.043262 96.6141023,13.8913736 97.6471318,11.9872496 C98.4851845,10.4418233 97.9524465,8.50514357 96.4386729,7.61178295 C91.2217302,4.53394853 85.6150326,2.21252465 79.7809116,0.706210729 C78.1371535,0.282356093 76.4415008,1.20832 75.8957643,2.82548589 C74.1156713,8.13996651 69.1650481,11.7068403 63.5843473,11.7068403 C58.0035473,11.7068403 53.052924,8.13344744 51.272831,2.82548589 C50.7336434,1.20832 49.0378915,0.282356093 47.3877829,0.706210729 C41.5535628,2.21252465 35.9533147,4.53394853 30.7299225,7.61178295 C29.2161488,8.50514357 28.6834109,10.4418233 29.5214636,11.9872496 C30.554493,13.8913736 31.1002295,16.0497116 31.1002295,18.2276961 C31.1002295,25.4202047 25.2725581,31.2694078 18.1065426,31.2694078 C15.9301457,31.2694078 13.7797457,30.7216868 11.8891163,29.6847876 C10.3493457,28.8436589 8.41982016,29.3783814 7.52976372,30.8977116 C4.46326078,36.1339039 2.1504,41.7614388 0.649631752,47.6171907 C0.227337922,49.2734512 1.14988651,50.9689054 2.76109891,51.5166264 C8.05600248,53.3033674 11.6097984,58.2722481 11.6097984,63.8735876 C11.6097984,69.4750264 8.04950326,74.443907 2.76109891,76.2306481 C1.14988651,76.7718202 0.227337922,78.4738233 0.649631752,80.1300837 C2.1504,85.9858357 4.46326078,91.6067225 7.52976372,96.8494636 C8.41982016,98.368893 10.3493457,98.9036155 11.8891163,98.0623876 C13.7861953,97.0255876 15.9365953,96.4778667 18.1065426,96.4778667 C25.2725581,96.4778667 31.1002295,102.326574 31.1002295,109.51938 C31.1002295,111.70431 30.554493,113.855504 29.5214636,115.759628 C28.6834109,117.30555 29.2161488,119.242419 30.7299225,120.135442 C35.9468651,123.213395 41.5535628,125.534264 47.3877829,127.041488 Z M63.5905984,103.879442 C70.0068713,103.879442 75.7856248,107.468403 78.706307,113.033922 C81.6667783,112.114109 84.5476713,110.925395 87.3032434,109.47969 C86.6883473,107.685705 86.369538,105.788527 86.369538,103.879442 C86.369538,94.4283783 94.0326698,86.7368682 103.449798,86.7368682 C105.350946,86.7368682 107.241178,87.0568682 109.029209,87.6739473 L112.570543,79.0452589 C107.024868,76.1195163 103.449798,70.3194295 103.449798,63.8736868 C103.449798,57.427845 107.024868,51.6335132 112.570543,48.7020155 C111.653705,45.7305302 110.468961,42.8390202 109.029209,40.0733271 C107.241178,40.6904062 105.350946,41.0105054 103.449798,41.0105054 C94.0326698,41.0105054 86.369538,33.3188961 86.369538,23.8673364 C86.369538,21.9587473 86.6883473,20.061569 87.3032434,18.2672868 C84.5476713,16.8215814 81.6725333,15.6272124 78.706307,14.712955 C75.7912806,20.2787721 70.0126264,23.8673364 63.5905984,23.8673364 C57.1684713,23.8673364 51.3954729,20.2787721 48.4747907,14.712955 C45.5143194,15.6272124 42.6334264,16.8215814 39.8778543,18.2672868 C40.4927504,20.061569 40.8115597,21.9587473 40.8115597,23.8673364 C40.8115597,33.3188961 33.1484279,41.0105054 23.7316961,41.0105054 C21.8300527,41.0105054 19.9399194,40.6904062 18.152186,40.0733271 C16.7118388,42.8390202 15.5219349,45.7247752 14.6109519,48.7020155 C20.1562295,51.6277581 23.7316961,57.427845 23.7316961,63.8736868 C23.7316961,70.3194295 20.1562295,76.1138605 14.6109519,79.0452589 C15.5219349,82.0167442 16.7118388,84.9082543 18.152186,87.6739473 C19.9399194,87.0568682 21.8300527,86.7368682 23.7316961,86.7368682 C33.1484279,86.7368682 40.8115597,94.4283783 40.8115597,103.879442 C40.8115597,105.788527 40.4927504,107.685705 39.8778543,109.47969 C42.6334264,110.925395 45.5085643,112.120062 48.4747907,113.033922 C51.3898171,107.468403 57.1684713,103.879442 63.5905984,103.879442 Z"></path>
            <path d="M64,88.3100775 C50.5970109,88.3100775 39.6899225,77.4029891 39.6899225,64 C39.6899225,50.5970109 50.5970109,39.6899225 64,39.6899225 C77.4029891,39.6899225 88.3100775,50.5970109 88.3100775,64 C88.3100775,77.4029891 77.4029891,88.3100775 64,88.3100775 Z M64,50.4944124 C56.5516899,50.4944124 50.4944124,56.5516899 50.4944124,64 C50.4944124,71.4483101 56.5516899,77.5055876 64,77.5055876 C71.4483101,77.5055876 77.5055876,71.4483101 77.5055876,64 C77.5055876,56.5516899 71.4483101,50.4944124 64,50.4944124 Z" fill-rule="nonzero"></path>
        </g>
    </g>
</svg>