<?xml version="1.0" encoding="UTF-8"?>
<svg width="128px" height="128px" viewBox="0 0 128 128" version="1.1" xmlns="http://www.w3.org/2000/svg" xmlns:xlink="http://www.w3.org/1999/xlink">
    <!-- Generator: Sketch 52.6 (67491) - http://www.bohemiancoding.com/sketch -->
    <title>doc</title>
    <desc>Created with Sketch.</desc>
    <g id="doc" stroke="none" stroke-width="1" fill="none" fill-rule="evenodd">
        <path d="M0,30 C0,13.4315 13.4315,0 30,0 L98,0 C114.569,0 128,13.4315 128,30 L128,98 C128,114.569 114.569,128 98,128 L30,128 C13.4315,128 0,114.569 0,98 L0,30 Z M30,12 C20.0589,12 12,20.0589 12,30 L12,98 C12,107.941 20.0589,116 30,116 L98,116 C107.941,116 116,107.941 116,98 L116,30 C116,20.0589 107.941,12 98,12 L30,12 Z" id="Shape" fill="#000000"></path>
        <path d="M33,36.5 C29.6862915,36.5 27,33.8137085 27,30.5 C27,27.1862915 29.6862915,24.5 33,24.5 L95,24.5 C98.3137085,24.5 101,27.1862915 101,30.5 C101,33.8137085 98.3137085,36.5 95,36.5 L33,36.5 Z M33,59.5 C29.6862915,59.5 27,56.8137085 27,53.5 C27,50.1862915 29.6862915,47.5 33,47.5 L95,47.5 C98.3137085,47.5 101,50.1862915 101,53.5 C101,56.8137085 98.3137085,59.5 95,59.5 L33,59.5 Z M33,81.5 C29.6862915,81.5 27,78.8137085 27,75.5 C27,72.1862915 29.6862915,69.5 33,69.5 L95,69.5 C98.3137085,69.5 101,72.1862915 101,75.5 C101,78.8137085 98.3137085,81.5 95,81.5 L33,81.5 Z M33,104.5 C29.6862915,104.5 27,101.813708 27,98.5 C27,95.1862915 29.6862915,92.5 33,92.5 L95,92.5 C98.3137085,92.5 101,95.1862915 101,98.5 C101,101.813708 98.3137085,104.5 95,104.5 L33,104.5 Z" id="Combined-Shape" fill="#000000" fill-rule="nonzero"></path>
    </g>
</svg>