<svg width="128" height="128" viewBox="0 0 128 128" fill="none" xmlns="http://www.w3.org/2000/svg">
<path d="M0 5C0 2.23858 2.23858 0 5 0H21C23.7614 0 26 2.23858 26 5V22C26 24.7614 23.7614 27 21 27H5C2.23858 27 0 24.7614 0 22V5Z" fill="black"/>
<path d="M0 56C0 53.2386 2.23858 51 5 51H21C23.7614 51 26 53.2386 26 56V73C26 75.7614 23.7614 78 21 78H5C2.23858 78 0 75.7614 0 73V56Z" fill="black"/>
<path d="M0 106C0 103.239 2.23858 101 5 101H21C23.7614 101 26 103.239 26 106V123C26 125.761 23.7614 128 21 128H5C2.23858 128 0 125.761 0 123V106Z" fill="black"/>
<path d="M51 5C51 2.23858 53.2386 0 56 0H72C74.7614 0 77 2.23858 77 5V22C77 24.7614 74.7614 27 72 27H56C53.2386 27 51 24.7614 51 22V5Z" fill="black"/>
<path d="M51 56C51 53.2386 53.2386 51 56 51H72C74.7614 51 77 53.2386 77 56V73C77 75.7614 74.7614 78 72 78H56C53.2386 78 51 75.7614 51 73V56Z" fill="black"/>
<path d="M51 106C51 103.239 53.2386 101 56 101H72C74.7614 101 77 103.239 77 106V123C77 125.761 74.7614 128 72 128H56C53.2386 128 51 125.761 51 123V106Z" fill="black"/>
<path d="M102 5C102 2.23858 104.239 0 107 0H123C125.761 0 128 2.23858 128 5V22C128 24.7614 125.761 27 123 27H107C104.239 27 102 24.7614 102 22V5Z" fill="black"/>
<path d="M102 56C102 53.2386 104.239 51 107 51H123C125.761 51 128 53.2386 128 56V73C128 75.7614 125.761 78 123 78H107C104.239 78 102 75.7614 102 73V56Z" fill="black"/>
<path d="M102 106C102 103.239 104.239 101 107 101H123C125.761 101 128 103.239 128 106V123C128 125.761 125.761 128 123 128H107C104.239 128 102 125.761 102 123V106Z" fill="black"/>
</svg>
