<?xml version="1.0" encoding="UTF-8"?>
<svg width="128px" height="128px" viewBox="0 0 128 128" version="1.1" xmlns="http://www.w3.org/2000/svg" xmlns:xlink="http://www.w3.org/1999/xlink">
    <!-- Generator: Sketch 52.6 (67491) - http://www.bohemiancoding.com/sketch -->
    <title>fields</title>
    <desc>Created with Sketch.</desc>
    <g id="fields" stroke="none" stroke-width="1" fill="none" fill-rule="evenodd">
        <path d="M116,46 L69.3173828,46 L69.3173828,116 L112,116 C114.209139,116 116,114.209139 116,112 L116,46 Z M116,34 L116,16 C116,13.790861 114.209139,12 112,12 L16,12 C13.790861,12 12,13.790861 12,16 L12,34 L116,34 Z M12,46 L12,112 C12,114.209139 13.790861,116 16,116 L57.3173828,116 L57.3173828,46 L12,46 Z M16,0 L112,0 C120.836556,-1.623249e-15 128,7.163444 128,16 L128,112 C128,120.836556 120.836556,128 112,128 L16,128 C7.163444,128 1.082166e-15,120.836556 0,112 L0,16 C-1.082166e-15,7.163444 7.163444,1.623249e-15 16,0 Z" id="Combined-Shape" fill="#000000" fill-rule="nonzero"></path>
    </g>
</svg>