<?xml version="1.0" encoding="UTF-8"?>
<svg width="128px" height="128px" viewBox="0 0 128 128" version="1.1" xmlns="http://www.w3.org/2000/svg" xmlns:xlink="http://www.w3.org/1999/xlink">
    <!-- Generator: Sketch 52.6 (67491) - http://www.bohemiancoding.com/sketch -->
    <title>fixed-assets</title>
    <desc>Created with Sketch.</desc>
    <g id="fixed-assets" stroke="none" stroke-width="1" fill="none" fill-rule="evenodd">
        <path d="M53.5,70.3173005 L53.5,122.740234 C53.5,125.501658 51.2614237,127.740234 48.5,127.740234 C45.7385763,127.740234 43.5,125.501658 43.5,122.740234 L43.5,70.4735725 L40.0185674,73.1100303 C37.8171566,74.7771391 34.6811019,74.3440017 33.0139931,72.1425909 C31.3468844,69.9411801 31.7800218,66.8051253 33.9814326,65.1380166 L46.029671,56.0139931 C47.8954156,54.6010814 50.4916122,54.6713985 52.2781411,56.1832306 L63.0599808,65.3072541 C65.1679244,67.0910801 65.4306735,70.2459826 63.6468475,72.3539261 C61.8630215,74.4618697 58.7081189,74.7246188 56.6001754,72.9407928 L53.5,70.3173005 Z M85.5,112.521912 L88.8113399,110.014264 C91.0127507,108.347155 94.1488055,108.780292 95.8159142,110.981703 C97.483023,113.183114 97.0498856,116.319169 94.8484748,117.986277 L82.8002363,127.110301 C80.9344918,128.523212 78.3382951,128.452895 76.5517662,126.941063 L65.7699265,117.81704 C63.661983,116.033214 63.3992338,112.878311 65.1830598,110.770368 C66.9668859,108.662424 70.1217884,108.399675 72.2297319,110.183501 L75.5,112.950933 L75.5,61.5322266 C75.5,58.7708028 77.7385763,56.5322266 80.5,56.5322266 C83.2614237,56.5322266 85.5,58.7708028 85.5,61.5322266 L85.5,112.521912 Z M106.521503,46.9884243 L63.9643458,13.6241042 L22.5,46.1316727 L22.5,107.740234 C22.5,111.053943 19.8137085,113.740234 16.5,113.740234 C13.1862915,113.740234 10.5,111.053943 10.5,107.740234 L10.5,55.5395342 L9.70188862,56.1652444 C7.09407391,58.209741 3.32263041,57.7530815 1.27813378,55.1452667 C-0.766362855,52.537452 -0.309703327,48.7660085 2.29811138,46.7215119 L60.2624572,1.27813378 C62.4361861,-0.426044592 65.4925056,-0.426044592 67.6662345,1.27813378 L125.63058,46.7215119 C128.238395,48.7660085 128.695055,52.537452 126.650558,55.1452667 C124.676406,57.6633541 121.092102,58.1757697 118.5,56.3674112 L118.5,109.740234 C118.5,113.053943 115.813708,115.740234 112.5,115.740234 C109.186292,115.740234 106.5,113.053943 106.5,109.740234 L106.5,47.5 C106.5,47.3276816 106.507264,47.1570599 106.521503,46.9884243 Z" id="Combined-Shape" fill="#000000" fill-rule="nonzero"></path>
    </g>
</svg>