<svg width="128" height="128" viewBox="0 0 128 128" fill="none" xmlns="http://www.w3.org/2000/svg">
<path fill-rule="evenodd" clip-rule="evenodd" d="M56.7792 24.0753L60.1148 30H12V28C12 23.5817 15.5817 20 20 20H49.8081C52.6972 20 55.3619 21.5577 56.7792 24.0753ZM12 42V100C12 104.418 15.5817 108 20 108H108C112.418 108 116 104.418 116 100V50.2026C116 45.7844 112.418 42 108 42H75H74H12ZM75 30H108C119.046 30 128 39.1569 128 50.2026V100C128 111.046 119.046 120 108 120H20C8.95431 120 0 111.046 0 100V28C0 16.9543 8.9543 8 20 8H49.8081C57.0309 8 63.6925 11.8944 67.2359 18.1882L74 30H75Z" fill="black"/>
</svg>
