<svg width="128" height="128" viewBox="0 0 128 128" fill="none" xmlns="http://www.w3.org/2000/svg">
<path fill-rule="evenodd" clip-rule="evenodd" d="M11.5 40C17.8513 40 23 34.8513 23 28.5C23 22.1487 17.8513 17 11.5 17C5.14873 17 0 22.1487 0 28.5C0 34.8513 5.14873 40 11.5 40ZM123.21 34H37.7899C35.1445 34 33 31.3137 33 28C33 24.6863 35.1445 22 37.7899 22H123.21C125.855 22 128 24.6863 128 28C128 31.3137 125.855 34 123.21 34ZM123.21 69H37.7899C35.1445 69 33 66.3137 33 63C33 59.6863 35.1445 57 37.7899 57H123.21C125.855 57 128 59.6863 128 63C128 66.3137 125.855 69 123.21 69ZM37.7899 105H123.21C125.855 105 128 102.314 128 99C128 95.6863 125.855 93 123.21 93H37.7899C35.1445 93 33 95.6863 33 99C33 102.314 35.1445 105 37.7899 105ZM23 63.5C23 69.8513 17.8513 75 11.5 75C5.14873 75 0 69.8513 0 63.5C0 57.1487 5.14873 52 11.5 52C17.8513 52 23 57.1487 23 63.5ZM11.5 110C17.8513 110 23 104.851 23 98.5C23 92.1487 17.8513 87 11.5 87C5.14873 87 0 92.1487 0 98.5C0 104.851 5.14873 110 11.5 110Z" fill="black"/>
</svg>
