<?xml version="1.0" encoding="UTF-8"?>
<svg width="128px" height="128px" viewBox="0 0 128 128" version="1.1" xmlns="http://www.w3.org/2000/svg" xmlns:xlink="http://www.w3.org/1999/xlink">
    <!-- Generator: Sketch 52.6 (67491) - http://www.bohemiancoding.com/sketch -->
    <title>loudspeaker</title>
    <desc>Created with Sketch.</desc>
    <g id="loudspeaker" stroke="none" stroke-width="1" fill="none" fill-rule="evenodd">
        <g id="001-loudspeaker" transform="translate(103.000000, 29.000000)" fill="#000000">
            <path d="M17.1403248,1.48106531 C16.1081424,-0.0765600862 14.0566198,-0.467634844 12.5592331,0.605151288 C11.0605621,1.67927215 10.6842891,3.81016242 11.7164714,5.36778782 C16.0956214,11.9700107 18.4107277,19.9339878 18.4107277,28.3971526 C18.4107277,36.8292849 15.9890321,45.0748893 11.5935085,51.6140464 C10.5526578,53.1639971 10.9160887,55.2988915 12.4073755,56.3820218 C12.9817376,56.7991237 13.6402153,57 14.2909878,57 C15.3305544,57 16.3540683,56.4891336 16.9948882,55.5361391 C22.2318892,47.7466774 25,38.3618842 25,28.3971526 C25,18.539199 22.2822944,9.23148631 17.1403248,1.48106531 Z" id="Fill-1"></path>
            <path d="M6.51428184,11.3810623 C5.51262873,9.8137561 3.52085366,9.41856911 2.06605691,10.5002927 C0.612506775,11.5806721 0.247249322,13.7283252 1.24921409,15.2956314 C3.71813008,19.1560976 5.02302168,23.8213875 5.02302168,28.7857561 C5.02302168,33.7319783 3.65829268,38.5612575 1.18096206,42.386439 C0.169336043,43.9470244 0.522439024,46.0973659 1.9697561,47.1868184 C2.52730352,47.6068726 3.16650407,47.8091707 3.7997832,47.8091707 C4.80891599,47.8091707 5.80090786,47.2956965 6.42296748,46.3349485 C9.69189702,41.2916098 11.4181436,35.2233388 11.4181436,28.7857561 C11.4181436,22.4167263 9.72212737,16.3995339 6.51428184,11.3810623 Z" id="Fill-2"></path>
        </g>
        <path d="M8.74276585,77.6830476 C8.28902,74.8530998 10.1293353,72.1768181 12.8532252,71.7054051 C15.577115,71.2339921 18.1530977,73.1459624 18.6068435,75.9759102 L23.6860622,107.654268 C24.3296762,111.668397 27.6724247,114.610638 31.5893555,114.610638 C33.9449661,114.610638 35.8545658,112.626686 35.8545658,110.179356 C35.8545658,109.923759 35.8332802,109.668641 35.7909473,109.416856 L30.4622737,77.7233397 C29.9871091,74.8971888 31.8070985,72.2059457 34.5273338,71.71228 C37.247569,71.2186143 39.8379524,73.1094672 40.3131169,75.9356181 L45.6417905,107.629134 C45.7833752,108.471242 45.8545658,109.324498 45.8545658,110.179356 C45.8545658,118.364572 39.4678136,125 31.5893555,125 C22.7837147,125 15.2688913,118.385556 13.8219845,109.361406 L8.74276585,77.6830476 Z M13.5,34.7580927 C12.1192881,34.7580927 11,35.8773808 11,37.2580927 L11,69.2580927 C11,70.6388046 12.1192881,71.7580927 13.5,71.7580927 L37.5,71.7580927 C38.8807119,71.7580927 40,70.6388046 40,69.2580927 L40,37.2580927 C40,35.8773808 38.8807119,34.7580927 37.5,34.7580927 L13.5,34.7580927 Z M13.5,23.7580927 L37.5,23.7580927 C44.9558441,23.7580927 51,29.8022486 51,37.2580927 L50.0548651,39.1596236 C50.0548651,45.2159077 49.5014919,55.1196917 50.0548651,67.4472656 L51,69.2580927 C51,76.7139368 44.9558441,82.7580927 37.5,82.7580927 C34.4437934,82.7580927 32.1516385,82.7580927 30.6235352,82.7580927 C26.8183051,82.7580927 21.1104601,82.7580927 13.5,82.7580927 C6.04415588,82.7580927 1.55431223e-15,76.7139368 0,69.2580927 L0,37.2580927 C-1.49880108e-15,29.8022486 6.04415588,23.7580927 13.5,23.7580927 Z M86.4428711,20.6141538 C76.7587932,28.7302673 62.9187404,34.9625773 49,39.4899694 L49,67.1165774 C63.1153515,71.4637532 76.9676267,78.7261481 86.4428711,88.691352 L86.4428711,20.6141538 Z M97.4428711,7.51102237 L97.4428711,104.790319 C97.4428711,110.319525 90.2003286,112.392007 87.2754234,107.699775 C77.4581606,91.9505877 63.1632041,81.6553509 44.1252342,76.6754134 L43.970464,30.2405027 C62.8525495,24.7075026 77.4114774,15.924456 87.780006,3.91650516 C91.1107116,0.0591642546 97.4428711,2.41468262 97.4428711,7.51102237 Z" id="Combined-Shape" fill="#000000" fill-rule="nonzero"></path>
    </g>
</svg>