<svg width="128" height="128" viewBox="0 0 128 128" fill="none" xmlns="http://www.w3.org/2000/svg">
<g clip-path="url(#clip0_2632_27)">
<path fill-rule="evenodd" clip-rule="evenodd" d="M63.2471 81.6377C63.2471 91.6571 55.1566 99.7794 45.1765 99.7794C35.1964 99.7794 27.1059 91.6571 27.1059 81.6377C27.1059 71.6183 35.1964 63.496 45.1765 63.496C55.1566 63.496 63.2471 71.6183 63.2471 81.6377ZM45.1765 89.7007C49.6121 89.7007 53.2079 86.0907 53.2079 81.6377C53.2079 77.1846 49.6121 73.5747 45.1765 73.5747C40.7409 73.5747 37.1451 77.1846 37.1451 81.6377C37.1451 86.0907 40.7409 89.7007 45.1765 89.7007Z" fill="black"/>
<path fill-rule="evenodd" clip-rule="evenodd" d="M21.6171 42.3779C30.7277 36.6329 41.5503 34.2616 52.2166 35.6734C56.6679 36.2625 60.9753 37.4951 65.0155 39.307L76.298 44.8503L100.894 0L128 16.126V30.3226C128 31.2206 126.919 31.6702 126.286 31.0353L123.49 28.2279C122.998 27.7339 122.188 27.8346 121.892 28.4671C117.356 38.1744 88.0055 100.982 87.1819 102.578C85.8078 105.581 84.0242 108.45 81.7402 111.218C74.876 119.535 65.3347 125.185 54.7635 127.192C44.1923 129.2 33.2547 127.439 23.8389 122.213C14.4231 116.988 7.12001 108.626 3.1905 98.5712C-0.739017 88.5164 -1.04838 77.3998 2.31582 67.1405C5.68002 56.8811 12.5066 48.1229 21.6171 42.3779ZM117 19.5L104 12L98.9569 21.3464L105 25L102 29.5L96.5 26.5L91 36L97.5 39L94.5 44L88.5 41L83.8275 49.3858L97.3804 56.9448L117 19.5ZM52.5244 115.308C60.3379 113.825 67.3902 109.649 72.4637 103.501C73.7978 101.885 75.4889 99.4522 77.0608 96.7558L91.8588 68.0314L59.7333 50.1871C56.8542 48.9366 53.7969 48.0817 50.642 47.6641C42.7581 46.6206 34.7588 48.3733 28.025 52.6196C21.2911 56.8659 16.2453 63.3394 13.7588 70.9224C11.2722 78.5054 11.5008 86.722 14.4053 94.1538C17.3097 101.586 22.7076 107.766 29.6671 111.628C36.6266 115.491 44.7109 116.792 52.5244 115.308Z" fill="black"/>
</g>
<defs>
<clipPath id="clip0_2632_27">
<rect width="128" height="128" fill="white"/>
</clipPath>
</defs>
</svg>
