<svg width="128" height="128" viewBox="0 0 128 128" fill="none" xmlns="http://www.w3.org/2000/svg">
<g clip-path="url(#clip0)">
<path d="M69 0C65.6863 0 63 2.68629 63 6C63 9.31371 65.6863 12 69 12C69.7753 12 72.6988 12.4148 77.0702 13.9334C81.2747 15.394 86.408 17.7366 91.584 21.2253C101.88 28.1651 112.267 39.5637 116.131 57.7472C116.82 60.9885 120.006 63.0577 123.247 62.369C126.488 61.6802 128.558 58.4942 127.869 55.2528C123.233 33.4363 110.62 19.5849 98.291 11.2747C92.1545 7.13844 86.0691 4.35603 81.008 2.59787C76.1137 0.897665 71.7247 0 69 0Z" fill="black"/>
<path d="M67 25.5C63.6863 25.5 61 28.1863 61 31.5C61 34.8137 63.6863 37.5 67 37.5C72.9837 37.5 85.8137 43.7442 89.6457 60.8142C90.3715 64.0475 93.581 66.0801 96.8142 65.3543C100.047 64.6285 102.08 61.419 101.354 58.1858C96.3863 36.0558 79.0163 25.5 67 25.5Z" fill="black"/>
<path d="M83.8531 84.6356C88.0131 80.5041 93.2398 80.5041 97.4258 84.6356C102.52 89.7006 107.613 94.7659 112.68 99.8581C116.919 104.124 116.893 109.349 112.626 113.668C111.641 114.662 110.634 115.64 109.627 116.619C107.689 118.501 105.749 120.386 103.96 122.386C99.9857 126.838 95.0261 128.277 89.3191 127.957C81.0262 127.504 73.3998 124.758 66.0392 121.186C49.6929 113.241 35.7203 102.231 24.0134 88.3143C15.3467 78.024 8.19974 66.8008 3.50709 54.1635C1.21277 48.0582 -0.413559 41.7945 0.0927726 35.1556C0.413105 31.0771 1.93277 27.5847 4.94709 24.7311C6.89873 22.8762 8.78328 20.9729 10.6699 19.0675C11.9277 17.7973 13.1863 16.5261 14.4664 15.2677C18.6267 11.1621 23.8534 11.1621 28.0393 15.2404C29.7643 16.9291 31.4654 18.6417 33.1663 20.3541C34.0167 21.2102 34.8671 22.0663 35.7203 22.9193C36.9716 24.1838 38.2231 25.4349 39.4747 26.6861C40.7032 27.9141 41.9317 29.1422 43.1603 30.3833C47.5329 34.7821 47.5329 39.9004 43.1866 44.2729C42.7537 44.7094 42.3213 45.1459 41.8891 45.5822C39.2066 48.2903 36.5326 50.9897 33.7996 53.631C32.973 54.4578 32.8937 55.1242 33.3193 56.137C35.426 61.1486 38.4403 65.6004 41.827 69.7593C48.6526 78.131 56.3596 85.569 65.5602 91.3538C66.7517 92.0945 68.0215 92.7184 69.2928 93.343C70.1263 93.7525 70.9604 94.1623 71.7735 94.6056C72.8128 95.1927 73.5328 95.0065 74.3868 94.1267C77.4685 90.9662 80.6018 87.8594 83.7362 84.7516L83.8531 84.6356Z" fill="black"/>
</g>
<defs>
<clipPath id="clip0">
<rect width="128" height="128" fill="white"/>
</clipPath>
</defs>
</svg>
