<svg width="128" height="128" viewBox="0 0 128 128" fill="none" xmlns="http://www.w3.org/2000/svg">
<path d="M106.667 82.4C106.667 87.9965 101.891 92.5333 96 92.5333C90.109 92.5333 85.3333 87.9965 85.3333 82.4C85.3333 76.8035 90.109 72.2667 96 72.2667C101.891 72.2667 106.667 76.8035 106.667 82.4Z" fill="black"/>
<path d="M37.3333 27.2C37.3333 32.2074 33.1547 36.2667 28 36.2667C22.8453 36.2667 18.6667 32.2074 18.6667 27.2C18.6667 22.1926 22.8453 18.1333 28 18.1333C33.1547 18.1333 37.3333 22.1926 37.3333 27.2Z" fill="black"/>
<path fill-rule="evenodd" clip-rule="evenodd" d="M25.5864 67.1178C25.2957 66.8989 24.9815 66.6266 24.6223 66.2894C24.4105 66.0906 24.1789 65.8652 23.9283 65.614C23.4575 65.1423 22.9195 64.5798 22.3191 63.9329C20.5702 62.0484 18.3185 59.4746 15.9587 56.6647C10.674 50.372 5.95556 44.2485 3.87268 40.8355C1.35061 36.7029 0 31.9854 0 27.0845C0 12.1261 12.536 0 28 0C43.464 0 56 12.1261 56 27.0845C56 32.112 54.5786 36.9453 51.9322 41.1503C49.8286 44.493 45.1092 50.5848 39.9425 56.7444L37.2 60H64C66.2091 60 68 61.7909 68 64C68 66.2091 66.2091 68 64 68H28C26.9109 68 26.367 67.7057 25.5864 67.1178ZM25.7482 53.2596C25.9877 53.4844 26.1972 53.666 26.3909 53.8119C26.9114 54.2038 27.274 54.4 28 54.4C28.7257 54.4 29.0904 54.2028 29.6088 53.8119C29.802 53.6661 30.0103 53.4851 30.2483 53.261C30.6505 52.8824 31.1605 52.3577 31.7684 51.7003C32.9142 50.4614 34.3948 48.7642 35.9617 46.8963C39.4062 42.7898 42.5524 38.7286 43.9548 36.5002C45.7191 33.6968 46.6667 30.4746 46.6667 27.123C46.6667 17.1507 38.3093 9.06667 28 9.06667C17.6907 9.06667 9.33333 17.1507 9.33333 27.123C9.33333 30.3903 10.2337 33.5352 11.9151 36.2903C13.3037 38.5657 16.4493 42.648 19.9724 46.8431C21.5457 48.7164 23.0468 50.4323 24.2128 51.6886C24.8261 52.3495 25.3419 52.8782 25.7482 53.2596Z" fill="black"/>
<path fill-rule="evenodd" clip-rule="evenodd" d="M37.3333 27.2C37.3333 32.2074 33.1547 36.2667 28 36.2667C22.8453 36.2667 18.6667 32.2074 18.6667 27.2C18.6667 22.1926 22.8453 18.1333 28 18.1333C33.1547 18.1333 37.3333 22.1926 37.3333 27.2Z" fill="black"/>
<path fill-rule="evenodd" clip-rule="evenodd" d="M98.7579 127.014C97.8693 127.669 97.2441 128 96 128L52 128C48.7156 128 42.041 127.474 36.0303 124.611C32.9812 123.16 29.95 121.033 27.6767 117.923C25.369 114.765 24 110.804 24 106C24 100.132 25.7871 95.5603 28.713 92.1468C31.5788 88.8033 35.293 86.8526 38.7351 85.7053C42.1817 84.5564 45.5603 84.1433 48.0281 84.0062C48.0281 84.0062 49.8581 84 52 84H60C62.2091 84 64 85.7909 64 88C64 90.2091 62.2091 92 60 92L48.4719 91.9938C46.4397 92.1067 43.8183 92.4436 41.2649 93.2947C38.707 94.1474 36.4212 95.4467 34.787 97.3532C33.2129 99.1897 32 101.868 32 106C32 109.196 32.881 111.485 34.1358 113.202C35.425 114.967 37.2688 116.34 39.4697 117.389C43.959 119.526 49.2844 120 52 120L86.4 120C84.4012 117.894 84.9354 118.472 82.2385 115.331C76.1988 108.298 70.8064 101.454 68.4259 97.6397C65.5436 93.0208 64 87.7484 64 82.2709C64 65.5527 78.3269 52 96 52C113.673 52 128 65.5527 128 82.2709C128 87.8898 126.376 93.2918 123.351 97.9915C120.947 101.727 115.553 108.536 109.649 115.42C107.265 118.199 104.998 120.753 103.145 122.744C102.91 122.997 102.681 123.24 102.46 123.474C101.418 124.576 100.544 125.456 99.8543 126.091C99.4463 126.466 99.0892 126.77 98.7579 127.014ZM93.4265 111.525C93.7002 111.777 93.9396 111.98 94.1611 112.143C94.7558 112.581 95.1702 112.8 96 112.8C96.8294 112.8 97.2462 112.58 97.8386 112.143C98.0595 111.98 98.2975 111.777 98.5695 111.527C99.0292 111.104 99.612 110.517 100.307 109.783C101.616 108.398 103.308 106.501 105.099 104.414C109.036 99.8239 112.631 95.2849 114.234 92.7944C116.25 89.6612 117.333 86.0599 117.333 82.3139C117.333 71.1685 107.782 62.1333 96 62.1333C84.2179 62.1333 74.6667 71.1685 74.6667 82.3139C74.6667 85.9656 75.6957 89.4806 77.6173 92.5598C79.2042 95.1028 82.7992 99.6654 86.8257 104.354C88.6236 106.448 90.3392 108.365 91.6717 109.77C92.3727 110.508 92.9621 111.099 93.4265 111.525Z" fill="black"/>
<path fill-rule="evenodd" clip-rule="evenodd" d="M106.667 82.4C106.667 87.9965 101.891 92.5333 96 92.5333C90.109 92.5333 85.3333 87.9965 85.3333 82.4C85.3333 76.8035 90.109 72.2667 96 72.2667C101.891 72.2667 106.667 76.8035 106.667 82.4Z" fill="black"/>
</svg>
