<svg width="24" height="24" viewBox="0 0 24 24" fill="none" xmlns="http://www.w3.org/2000/svg">
<g clip-path="url(#clip0_1713_28)">
<path fill-rule="evenodd" clip-rule="evenodd" d="M5.06493 9.27286L0.116011 15.3627C0.116011 15.3627 -0.277667 16.0325 0.385389 16.7023C1.04845 17.3721 2.10525 16.7023 2.10525 16.7023L7.01618 10.6738C7.3602 10.5351 7.74247 10.4924 8.17576 10.4441C9.33324 10.315 10.8548 10.1453 12.9839 7.99451C14.9731 5.98504 15.6362 1.96617 14.3101 0.626514C13.1803 -0.514719 9.35065 -0.237476 7.01618 2.63603C5.20356 4.8672 5.12521 7.56935 5.09031 8.773C5.08389 8.99441 5.07894 9.16512 5.06493 9.27286ZM7.57104 21.9855L12.9794 16.1307C12.9552 16.036 12.9265 15.93 12.8954 15.8148C12.6506 14.9105 12.2545 13.4468 12.7104 12.5544C13.2243 11.5485 14.2093 10.4586 14.6376 10.0395L18.385 6.31481C18.385 6.31481 19.1078 5.63948 19.7769 6.26707C20.4461 6.89466 19.7591 7.57114 19.7591 7.57114L16.5649 11.297C16.5649 11.297 16.2991 11.63 16.5649 11.8917C16.8306 12.1534 17.2073 11.9257 17.2073 11.9257L20.348 8.34426C20.348 8.34426 20.9993 7.47909 21.7042 8.15328C22.409 8.82747 21.7042 9.50395 21.7042 9.50395L18.4921 13.1832C18.4921 13.1832 18.2384 13.522 18.5328 13.8119C18.8272 14.1018 19.1345 13.8119 19.1345 13.8119L22.3109 10.1804C22.3109 10.1804 22.989 9.51198 23.6314 10.0395C24.2738 10.567 23.8812 11.2435 23.8812 11.2435L20.4193 15.6981C19.5628 16.746 17.2073 18.5903 14.6376 17.5843L10.1407 22.6142C10.1407 22.6142 8.85586 24.5004 7.57103 23.8717C6.2862 23.243 7.57104 21.9855 7.57104 21.9855Z" fill="black"/>
</g>
<defs>
<clipPath id="clip0_1713_28">
<rect width="24" height="24" fill="white"/>
</clipPath>
</defs>
</svg>
