<?xml version="1.0" encoding="UTF-8"?>
<svg width="128px" height="128px" viewBox="0 0 128 128" version="1.1" xmlns="http://www.w3.org/2000/svg" xmlns:xlink="http://www.w3.org/1999/xlink">
    <!-- Generator: Sketch 52.6 (67491) - http://www.bohemiancoding.com/sketch -->
    <title>save</title>
    <desc>Created with Sketch.</desc>
    <g id="save" stroke="none" stroke-width="1" fill="none" fill-rule="evenodd">
        <path d="M99,12 L99,35 C99,36.6568542 97.6568542,38 96,38 L32,38 C30.3431458,38 29,36.6568542 29,35 L29,12 L15.8518519,12 C13.7245328,12 12,13.7245328 12,15.8518519 L12,112.148148 C12,114.275467 13.7245328,116 15.8518519,116 L112.148148,116 C114.275467,116 116,114.275467 116,112.148148 L116,15.8518519 C116,13.7245328 114.275467,12 112.148148,12 L99,12 Z M87,12 L41,12 L41,26 L87,26 L87,12 Z M14,0 L114,0 C121.731986,-1.38161088e-15 128,6.2680135 128,14 L128,114 C128,121.731986 121.731986,128 114,128 L14,128 C6.2680135,128 1.38161088e-15,121.731986 0,114 L0,14 C-1.38161088e-15,6.2680135 6.2680135,1.38161088e-15 14,0 Z M64.5,99 C50.4167389,99 39,87.5832611 39,73.5 C39,59.4167389 50.4167389,48 64.5,48 C78.5832611,48 90,59.4167389 90,73.5 C90,87.5832611 78.5832611,99 64.5,99 Z M64.5,87 C71.9558441,87 78,80.9558441 78,73.5 C78,66.0441559 71.9558441,60 64.5,60 C57.0441559,60 51,66.0441559 51,73.5 C51,80.9558441 57.0441559,87 64.5,87 Z" fill="#000000" fill-rule="nonzero"></path>
    </g>
</svg>