<?xml version="1.0" encoding="UTF-8"?>
<svg width="128px" height="128px" viewBox="0 0 128 128" version="1.1" xmlns="http://www.w3.org/2000/svg" xmlns:xlink="http://www.w3.org/1999/xlink">
    <!-- Generator: Sketch 52.6 (67491) - http://www.bohemiancoding.com/sketch -->
    <title>sort-desc</title>
    <desc>Created with Sketch.</desc>
    <g id="sort-desc" stroke="none" stroke-width="1" fill="none" fill-rule="evenodd">
        <path d="M42.9313325,107.748542 L57.4971005,93.6393605 C59.8766124,91.334438 63.6751374,91.393831 65.9813436,93.7720183 C68.2875498,96.1502057 68.2281238,99.9466164 65.8486119,102.251539 L41.4003272,125.933455 C41.1268329,126.238366 40.8225553,126.515127 40.4923794,126.758855 C38.1628065,128.551973 34.8211324,128.402164 32.6606747,126.309429 L7.82424889,102.251539 C5.44473697,99.9466164 5.38531095,96.1502057 7.69151715,93.7720183 C9.99772335,91.393831 13.7962484,91.334438 16.1757603,93.6393605 L30.9313325,107.932397 L30.9313325,5.99666019 C30.9313325,2.68479622 33.617624,0 36.9313325,0 C40.245041,0 42.9313325,2.68479622 42.9313325,5.99666019 L42.9313325,107.748542 Z M59.5,12.8486328 C56.1862915,12.8486328 53.5,10.1623413 53.5,6.84863281 C53.5,3.53492431 56.1862915,0.848632812 59.5,0.848632812 L121,0.848632812 C124.313708,0.848632812 127,3.53492431 127,6.84863281 C127,10.1623413 124.313708,12.8486328 121,12.8486328 L59.5,12.8486328 Z M59.5,36.8486328 C56.1862915,36.8486328 53.5,34.1623413 53.5,30.8486328 C53.5,27.5349243 56.1862915,24.8486328 59.5,24.8486328 L102,24.8486328 C105.313708,24.8486328 108,27.5349243 108,30.8486328 C108,34.1623413 105.313708,36.8486328 102,36.8486328 L59.5,36.8486328 Z M59.824501,61.6972656 C56.5107925,61.6972656 53.824501,59.0109741 53.824501,55.6972656 C53.824501,52.3835571 56.5107925,49.6972656 59.824501,49.6972656 L76.6453775,49.6972656 C79.959086,49.6972656 82.6453775,52.3835571 82.6453775,55.6972656 C82.6453775,59.0109741 79.959086,61.6972656 76.6453775,61.6972656 L59.824501,61.6972656 Z" id="Combined-Shape" fill="#000000" fill-rule="nonzero"></path>
    </g>
</svg>