<svg width="128" height="128" viewBox="0 0 128 128" fill="none" xmlns="http://www.w3.org/2000/svg">
<g clip-path="url(#clip0_2591_2)">
<path d="M9.00049 111.324L4.50066 111.285L4.50064 111.288L9.00049 111.324ZM20.9239 98.9002L20.8445 94.4009L20.8419 94.401L20.9239 98.9002ZM33.4804 111.624L37.98 111.683L37.98 111.681L33.4804 111.624ZM21.3655 123.868L21.3044 119.368L21.2995 119.368L21.3655 123.868ZM115.812 56.9364L120.02 55.3428C119.975 55.2237 119.925 55.1067 119.87 54.9919L115.812 56.9364ZM84.997 33.7415L81.395 36.4389C82.0042 37.2524 82.8709 37.8358 83.8539 38.0939L84.997 33.7415ZM82.3648 30.2115L82.2743 25.7124C80.5944 25.7462 79.0733 26.7131 78.3296 28.2198C77.5859 29.7265 77.7436 31.522 78.7385 32.876L82.3648 30.2115ZM94.7392 17.8491L90.2397 17.7807L90.2396 17.7885L94.7392 17.8491ZM81.8354 5.00181L81.7574 0.502481L81.7546 0.502531L81.8354 5.00181ZM69.5821 17.5461L65.0822 17.5063L65.0822 17.5068L69.5821 17.5461ZM76.4046 28.9541L78.8893 32.7059C80.2392 31.8119 81.0048 30.2617 80.8941 28.6464C80.7834 27.0311 79.8135 25.5998 78.3542 24.8983L76.4046 28.9541ZM72.0824 30.2115L72.5041 34.6917C72.6415 34.6788 72.7783 34.6595 72.914 34.634L72.0824 30.2115ZM53.7041 32.733L56.2536 36.4412L56.2584 36.4378L53.7041 32.733ZM32.3455 48.8686L29.1381 45.7122L29.1348 45.7156L32.3455 48.8686ZM39.7962 57.724L37.3631 53.9385C37.1697 54.0628 36.986 54.2018 36.8138 54.3542L39.7962 57.724ZM56.89 47.2856L55.1616 43.1308C55.0154 43.1916 54.8725 43.2602 54.7335 43.3361L56.89 47.2856ZM57.8733 46.8766L62.0281 48.6052C62.7282 46.9224 62.3441 44.9835 61.0554 43.6947C59.7666 42.4059 57.8277 42.0217 56.1449 42.7218L57.8733 46.8766ZM57.601 47.725L53.5033 45.8652C53.2382 46.4493 53.101 47.0835 53.101 47.725H57.601ZM55.5286 53.8153L59.6612 55.5962L59.6626 55.593L55.5286 53.8153ZM39.7962 83.1568L43.8944 85.0153L43.8951 85.0138L39.7962 83.1568ZM41.2863 93.8569L38.9518 97.704L38.9562 97.7067L41.2863 93.8569ZM51.2205 90.2161L54.7397 93.0207L54.7435 93.0159L51.2205 90.2161ZM60.9594 81.8732L63.2408 77.9944C62.749 77.7052 62.2068 77.5121 61.643 77.4255L60.9594 81.8732ZM59.1289 93.8569L63.41 95.2433C63.412 95.2373 63.4139 95.2313 63.4158 95.2253L59.1289 93.8569ZM52.5333 112.158L48.3097 110.606L48.309 110.607L52.5333 112.158ZM55.2109 123.49L56.7087 119.247L56.7077 119.247L55.2109 123.49ZM64.711 116.718L60.4597 115.243L60.4592 115.245L64.711 116.718ZM84.997 59.7238L80.7629 58.1999L80.7628 58.2001L84.997 59.7238ZM89.036 52.573L87.7315 48.2662C87.7211 48.2694 87.7108 48.2726 87.7004 48.2758L89.036 52.573ZM97.7495 57.724L94.0352 60.2645L94.0399 60.2714L97.7495 57.724ZM103.375 66.0127L99.6294 68.5063L99.6357 68.5158L103.375 66.0127ZM115.812 67.5716L119.416 70.2661L115.812 67.5716ZM13.5003 111.363C13.5392 106.882 16.9982 103.473 21.006 103.399L20.8419 94.401C11.6898 94.5679 4.57952 102.202 4.50066 111.285L13.5003 111.363ZM21.0033 103.4C25.1868 103.326 29.0376 107.109 28.9807 111.567L37.98 111.681C38.0997 102.305 30.2627 94.2347 20.8445 94.4009L21.0033 103.4ZM28.9807 111.565C28.924 115.873 25.4511 119.312 21.3044 119.368L21.4267 128.367C30.5283 128.244 37.8601 120.789 37.98 111.683L28.9807 111.565ZM21.2995 119.368C16.7625 119.435 13.4611 116.22 13.5003 111.36L4.50064 111.288C4.42211 121.012 11.6605 128.511 21.4316 128.367L21.2995 119.368ZM119.87 54.9919C116.198 47.3274 111.918 41.8786 106.244 37.8342C100.661 33.8537 94.0396 31.4637 86.14 29.3891L83.8539 38.0939C91.4147 40.0795 96.7746 42.1362 101.02 45.1627C105.176 48.1253 108.573 52.2438 111.754 58.881L119.87 54.9919ZM84.997 33.7415C88.599 31.0442 88.5989 31.0442 88.5989 31.0442C88.5989 31.0441 88.5989 31.0441 88.5989 31.0441C88.5988 31.044 88.5987 31.0439 88.5986 31.0437C88.5984 31.0434 88.598 31.0429 88.5975 31.0423C88.5966 31.041 88.5951 31.0391 88.5932 31.0365C88.5893 31.0314 88.5836 31.0237 88.5761 31.0137C88.5611 30.9936 88.539 30.9641 88.5106 30.9261C88.4537 30.8502 88.3719 30.7408 88.2718 30.6071C88.0716 30.3394 87.7985 29.9744 87.5073 29.5845C86.9191 28.7972 86.2733 27.9309 85.9912 27.547L78.7385 32.876C79.0464 33.2951 79.7166 34.1938 80.297 34.9708C80.59 35.363 80.8644 35.7299 81.0655 35.9987C81.1661 36.1331 81.2484 36.2431 81.3056 36.3194C81.3341 36.3576 81.3565 36.3874 81.3716 36.4077C81.3792 36.4179 81.385 36.4256 81.389 36.4309C81.3909 36.4335 81.3924 36.4355 81.3934 36.4368C81.3939 36.4375 81.3943 36.438 81.3946 36.4383C81.3947 36.4385 81.3948 36.4386 81.3949 36.4387C81.3949 36.4388 81.3949 36.4388 81.3949 36.4388C81.3949 36.4388 81.395 36.4389 84.997 33.7415ZM82.4554 34.7106C91.6227 34.5262 99.1149 27.1133 99.2388 17.9096L90.2396 17.7885C90.182 22.0684 86.6613 25.6242 82.2743 25.7124L82.4554 34.7106ZM99.2387 17.9174C99.3833 8.39751 91.28 0.337342 81.7574 0.502482L81.9134 9.50113C86.3686 9.42387 90.3068 13.3625 90.2397 17.7807L99.2387 17.9174ZM81.7546 0.502531C72.5099 0.6686 65.1638 8.2805 65.0822 17.5063L74.0819 17.5858C74.1214 13.116 77.667 9.57741 81.9162 9.50108L81.7546 0.502531ZM65.0822 17.5068C65.0222 24.3817 68.6651 30.2265 74.455 33.0098L78.3542 24.8983C75.824 23.682 74.0512 21.1034 74.0819 17.5854L65.0822 17.5068ZM73.9199 25.2022C74.2328 24.995 74.3537 24.9984 73.9339 25.1358C73.6347 25.2337 73.2443 25.341 72.8179 25.4457C72.4018 25.548 72.0032 25.6353 71.7055 25.6975C71.5581 25.7283 71.4389 25.7522 71.3589 25.768C71.3191 25.7759 71.2892 25.7817 71.2706 25.7852C71.2614 25.787 71.255 25.7882 71.2516 25.7889C71.25 25.7892 71.2491 25.7894 71.2489 25.7894C71.2489 25.7894 71.249 25.7894 71.2493 25.7893C71.2495 25.7893 71.2497 25.7892 71.25 25.7892C71.2501 25.7892 71.2503 25.7891 71.2504 25.7891C71.2507 25.7891 71.2509 25.789 72.0824 30.2115C72.914 34.634 72.9142 34.634 72.9145 34.6339C72.9147 34.6339 72.915 34.6338 72.9152 34.6338C72.9157 34.6337 72.9162 34.6336 72.9168 34.6335C72.9179 34.6333 72.9193 34.633 72.9209 34.6327C72.924 34.6321 72.9279 34.6314 72.9327 34.6305C72.9422 34.6287 72.9549 34.6262 72.9707 34.6232C73.0022 34.6171 73.046 34.6087 73.1004 34.5979C73.2092 34.5765 73.3618 34.5458 73.5463 34.5072C73.9124 34.4308 74.4185 34.3202 74.9657 34.1857C75.5026 34.0538 76.1341 33.8855 76.7333 33.6894C77.2118 33.5327 78.1074 33.2237 78.8893 32.7059L73.9199 25.2022ZM71.6608 25.7313C70.4011 25.8499 69.0892 25.833 67.584 25.7744C66.1658 25.7192 64.4232 25.6168 62.7414 25.6375C59.1977 25.6812 55.1715 26.2554 51.1498 29.0283L56.2584 36.4378C58.2575 35.0595 60.2814 34.6685 62.8522 34.6368C64.2277 34.6199 65.5584 34.7024 67.2339 34.7676C68.8225 34.8295 70.6248 34.8686 72.5041 34.6917L71.6608 25.7313ZM51.1546 29.0249C41.9285 35.3683 37.8157 36.8947 29.1381 45.7122L35.5528 52.0251C43.4248 44.026 46.1769 43.3693 56.2536 36.4412L51.1546 29.0249ZM29.1348 45.7156C27.7415 47.1343 25.525 49.5328 24.2123 52.3546C23.537 53.8062 22.9829 55.6135 23.0742 57.6167C23.1701 59.7218 23.9689 61.7426 25.5182 63.4703L32.2188 57.4619C32.036 57.258 32.0649 57.2079 32.0648 57.2071C32.0602 57.1044 32.0841 56.7709 32.3726 56.1507C32.9875 54.8289 34.2416 53.3603 35.5561 52.0217L29.1348 45.7156ZM25.5182 63.4703C27.5101 65.6918 30.1007 66.3007 32.3249 66.1583C34.3862 66.0263 36.2755 65.2643 37.6703 64.5554C39.1201 63.8185 40.3823 62.9583 41.2559 62.3106C41.7009 61.9807 42.0647 61.6913 42.3238 61.4786C42.4537 61.3719 42.5584 61.2837 42.6349 61.2183C42.6732 61.1856 42.7046 61.1585 42.7286 61.1376C42.7406 61.1271 42.7508 61.1182 42.7591 61.1109C42.7633 61.1072 42.767 61.104 42.7702 61.1011C42.7718 61.0997 42.7733 61.0984 42.7747 61.0972C42.7754 61.0966 42.7764 61.0957 42.7767 61.0954C42.7776 61.0946 42.7785 61.0938 39.7962 57.724C36.8138 54.3542 36.8146 54.3535 36.8154 54.3528C36.8157 54.3526 36.8164 54.3519 36.8169 54.3515C36.8178 54.3507 36.8186 54.35 36.8194 54.3493C36.8208 54.3481 36.8218 54.3472 36.8223 54.3467C36.8235 54.3457 36.8229 54.3462 36.8207 54.3481C36.8163 54.352 36.8053 54.3615 36.788 54.3762C36.7536 54.4057 36.6945 54.4556 36.6136 54.522C36.451 54.6555 36.2046 54.8519 35.8958 55.0809C35.2618 55.5509 34.4415 56.1007 33.5925 56.5322C32.6884 56.9917 32.0623 57.1567 31.7499 57.1767C31.6004 57.1862 31.9589 57.1721 32.2188 57.4619L25.5182 63.4703ZM39.7962 57.724C42.2292 61.5096 42.2292 61.5096 42.2292 61.5096C42.2293 61.5095 42.2293 61.5095 42.2295 61.5094C42.2297 61.5092 42.2302 61.5089 42.2308 61.5086C42.232 61.5078 42.2339 61.5066 42.2365 61.5049C42.2416 61.5016 42.2495 61.4965 42.2601 61.4897C42.2812 61.4762 42.3129 61.4559 42.3547 61.4291C42.4382 61.3755 42.5622 61.2961 42.7223 61.1937C43.0425 60.989 43.5072 60.6924 44.083 60.3266C45.2349 59.5947 46.829 58.5872 48.5979 57.4843C52.1691 55.2576 56.3405 52.7128 59.0466 51.2352L54.7335 43.3361C51.7701 44.9541 47.3945 47.6285 43.8362 49.8472C42.0403 50.9669 40.4239 51.9885 39.2566 52.7301C38.6728 53.1011 38.2007 53.4023 37.874 53.6112C37.7106 53.7157 37.5835 53.7971 37.497 53.8526C37.4537 53.8803 37.4206 53.9016 37.3981 53.916C37.3869 53.9232 37.3783 53.9287 37.3724 53.9325C37.3695 53.9344 37.3673 53.9358 37.3657 53.9368C37.3649 53.9373 37.3643 53.9377 37.3639 53.938C37.3637 53.9381 37.3635 53.9383 37.3634 53.9383C37.3632 53.9384 37.3631 53.9385 39.7962 57.724ZM58.6185 51.4405L59.6018 51.0314L56.1449 42.7218L55.1616 43.1308L58.6185 51.4405ZM53.7186 45.148C53.6562 45.2978 53.6104 45.428 53.5834 45.5072C53.5539 45.5938 53.5288 45.6733 53.5097 45.7351C53.4737 45.8519 53.4373 45.9776 53.4172 46.0463C53.3908 46.1368 53.3801 46.1725 53.3748 46.1891C53.373 46.195 53.3795 46.1739 53.3931 46.1358C53.4029 46.1084 53.4401 46.0045 53.5033 45.8652L61.6987 49.5848C61.7809 49.4038 61.8385 49.2478 61.8696 49.1605C61.9046 49.0624 61.9336 48.9735 61.9549 48.9063C61.9959 48.7766 62.0344 48.6447 62.0571 48.5666C62.0863 48.4668 62.0991 48.423 62.1093 48.3897C62.1134 48.3764 62.1107 48.3858 62.1026 48.4096C62.097 48.426 62.0715 48.5008 62.0281 48.6052L53.7186 45.148ZM53.101 47.725C53.101 47.3704 53.1454 47.0957 53.1523 47.0502C53.1674 46.952 53.1826 46.8763 53.1899 46.8405C53.2052 46.7662 53.2181 46.7146 53.2202 46.7061C53.2262 46.6819 53.226 46.6845 53.2136 46.7291C53.1909 46.8105 53.1509 46.9486 53.0931 47.1407C52.9792 47.5199 52.8142 48.0499 52.6208 48.6434C52.2208 49.8714 51.755 51.1996 51.3946 52.0376L59.6626 55.593C60.1947 54.3555 60.7651 52.6991 61.1782 51.4311C61.3914 50.7767 61.5771 50.1808 61.7123 49.731C61.7792 49.5086 61.8383 49.3065 61.8836 49.1436C61.9052 49.0661 61.9312 48.9706 61.9549 48.875C61.9659 48.8309 61.9855 48.7502 62.0053 48.654C62.015 48.6071 62.0318 48.5222 62.048 48.4166C62.0562 48.3637 62.101 48.0833 62.101 47.725H53.101ZM51.396 52.0344C49.3504 56.7813 46.6867 61.3935 43.8465 66.2475C41.0537 71.0204 38.0747 76.0519 35.6972 81.2998L43.8951 85.0138C46.0407 80.2778 48.7571 75.6759 51.6144 70.7927C54.4242 65.9907 57.3652 60.9242 59.6612 55.5962L51.396 52.0344ZM35.6979 81.2982C34.6569 83.5936 33.8986 86.4785 34.0944 89.3628C34.2978 92.3583 35.5968 95.6681 38.9518 97.704L43.6208 90.0099C43.4057 89.8793 43.1351 89.6571 43.0738 88.7531C43.0048 87.7379 43.2865 86.3559 43.8944 85.0153L35.6979 81.2982ZM38.9562 97.7067C42.2422 99.6955 45.6888 99.3668 48.4262 98.1463C51.0258 96.9873 53.1772 94.9813 54.7397 93.0207L47.7014 87.4116C46.6922 88.6778 45.6162 89.5452 44.7613 89.9263C44.0444 90.246 43.8098 90.1242 43.6164 90.0072L38.9562 97.7067ZM54.7435 93.0159C55.4859 92.0817 56.2338 90.9208 56.8138 90.0486C57.4612 89.0753 58.0276 88.2572 58.6068 87.5793C59.843 86.1324 60.2616 86.3188 60.2757 86.321L61.643 77.4255C56.8854 76.6942 53.6145 79.5674 51.7643 81.7329C50.8002 82.8612 49.9741 84.0808 49.3198 85.0647C48.5981 86.1498 48.1351 86.8658 47.6976 87.4163L54.7435 93.0159ZM58.678 85.752C57.1174 84.8342 57.2483 83.3716 57.2614 83.8823C57.2688 84.1701 57.1977 84.8165 56.9348 85.8869C56.3978 88.0734 55.5406 90.3001 54.842 92.4886L63.4158 95.2253C63.8972 93.7171 65.0463 90.5938 65.6751 88.0335C65.9951 86.7305 66.2969 85.1543 66.2585 83.6524C66.2258 82.3734 65.8924 79.5541 63.2408 77.9944L58.678 85.752ZM54.8478 92.4705C52.8871 98.525 50.5898 104.403 48.3097 110.606L56.757 113.711C58.9545 107.733 61.3771 101.521 63.41 95.2433L54.8478 92.4705ZM48.309 110.607C47.5723 112.614 46.3566 115.853 46.5685 119.001C46.6863 120.751 47.2392 122.617 48.5707 124.278C49.8784 125.91 51.6717 127.014 53.7141 127.734L56.7077 119.247C56.2579 119.088 55.9775 118.937 55.813 118.829C55.6541 118.724 55.6003 118.658 55.5939 118.65C55.5896 118.645 55.5908 118.648 55.5873 118.638C55.5812 118.621 55.5585 118.55 55.5482 118.397C55.5251 118.054 55.5752 117.49 55.7995 116.617C56.0218 115.753 56.352 114.814 56.7576 113.709L48.309 110.607ZM53.713 127.734C55.6368 128.413 57.6035 128.69 59.5449 128.364C61.5221 128.031 63.1526 127.127 64.446 125.951C66.8366 123.777 68.1231 120.615 68.9628 118.192L60.4592 115.245C59.65 117.579 58.9548 118.78 58.3917 119.292C58.2083 119.458 58.119 119.477 58.0535 119.488C57.9522 119.505 57.5533 119.545 56.7087 119.247L53.713 127.734ZM68.9623 118.194C76.2283 97.2559 81.7093 82.1492 89.2311 61.2476L80.7628 58.2001C73.2479 79.0824 67.7464 94.2454 60.4597 115.243L68.9623 118.194ZM89.231 61.2478C89.48 60.5561 89.7673 59.665 89.9759 59.0511C90.2153 58.3469 90.4307 57.7603 90.6506 57.2706C90.8784 56.7635 91.0367 56.5314 91.0938 56.4616C91.1419 56.4028 90.9212 56.6994 90.3716 56.8702L87.7004 48.2758C84.5484 49.2554 83.082 52.1553 82.4406 53.5833C81.7383 55.147 81.0729 57.3386 80.7629 58.1999L89.231 61.2478ZM90.3405 56.8798C90.0365 56.9719 90.2583 56.718 91.2734 57.3983C92.2147 58.029 93.2337 59.0927 94.0352 60.2645L101.464 55.1835C100.193 53.3253 98.4057 51.3438 96.2836 49.9218C94.2354 48.5492 91.1366 47.2349 87.7315 48.2662L90.3405 56.8798ZM94.0399 60.2714C97.0086 64.5946 96.7461 64.1749 99.6294 68.5063L107.121 63.5191C104.196 59.1241 104.42 59.489 101.459 55.1767L94.0399 60.2714ZM99.6357 68.5158C100.979 70.5223 103.698 73.1518 107.141 74.334C108.957 74.9577 111.157 75.2344 113.466 74.577C115.806 73.911 117.811 72.4129 119.416 70.2661L112.208 64.8771C111.568 65.7326 111.127 65.8855 111.002 65.9209C110.847 65.965 110.564 65.9938 110.064 65.8218C109.539 65.6415 108.929 65.2874 108.331 64.7939C107.73 64.2974 107.308 63.7985 107.115 63.5097L99.6357 68.5158ZM119.416 70.2661C121.923 66.9132 121.621 62.605 121.264 60.2408C121.059 58.8842 120.756 57.6881 120.509 56.8379C120.384 56.4082 120.269 56.0552 120.183 55.8006C120.14 55.6731 120.103 55.5694 120.075 55.4924C120.061 55.4539 120.05 55.4219 120.04 55.3969C120.036 55.3844 120.032 55.3736 120.028 55.3645C120.027 55.36 120.025 55.3559 120.024 55.3523C120.023 55.3505 120.022 55.3488 120.022 55.3472C120.022 55.3464 120.021 55.3453 120.021 55.3449C120.021 55.3438 120.02 55.3428 115.812 56.9364C111.604 58.5301 111.603 58.5291 111.603 58.5281C111.603 58.5278 111.602 58.5269 111.602 58.5263C111.602 58.5252 111.601 58.5241 111.601 58.5231C111.6 58.5212 111.6 58.5197 111.599 58.5186C111.598 58.5164 111.598 58.5158 111.598 58.5167C111.599 58.5186 111.602 58.5268 111.607 58.5408C111.617 58.5689 111.636 58.6204 111.66 58.6929C111.71 58.8383 111.783 59.0647 111.867 59.3527C112.037 59.9379 112.236 60.7301 112.365 61.5853C112.676 63.6448 112.374 64.6541 112.208 64.8771L119.416 70.2661Z" fill="black"/>
</g>
<defs>
<clipPath id="clip0_2591_2">
<rect width="128" height="128" fill="white"/>
</clipPath>
</defs>
</svg>
