<svg width="128" height="128" viewBox="0 0 128 128" fill="none" xmlns="http://www.w3.org/2000/svg">
<g clip-path="url(#clip0)">
<path fill-rule="evenodd" clip-rule="evenodd" d="M41.9567 12.0077L54.1248 24.6325C55.6743 26.2402 56.2029 28.5754 55.4968 30.6937L50.133 46.7852C49.4619 48.7985 47.7772 50.3075 45.7024 50.7537L28.27 54.5029C26.3667 54.9122 24.3832 54.3727 22.9495 53.0558L12.0019 42.9997C12.1878 59.7691 25.8395 73.3058 42.6529 73.3058C47.4646 73.3058 52.0014 72.2014 56.0388 70.2378C58.3395 69.1189 61.0966 69.5819 62.9056 71.3909L105.873 114.358C108.216 116.701 112.015 116.701 114.358 114.358C116.701 112.015 116.701 108.216 114.358 105.873L71.3909 62.9056C69.5819 61.0966 69.1189 58.3395 70.2379 56.0388C72.2014 52.0014 73.3058 47.4646 73.3058 42.6529C73.3058 25.7238 59.5821 12 42.6529 12C42.4202 12 42.1881 12.0026 41.9567 12.0077ZM2.04825 29.6135C2.55837 27.5578 4.11455 25.9234 6.14276 25.3131C8.17097 24.7028 10.3707 25.2071 11.9305 26.6399L28.7814 42.1185L39.8316 39.742L42.964 30.3448L25.6759 12.4078C24.2693 10.9484 23.6946 8.87739 24.1481 6.9018C24.6015 4.9262 26.0218 3.3131 27.9241 2.61315C32.5227 0.921075 37.487 0 42.6529 0C66.2095 0 85.3058 19.0964 85.3058 42.6529C85.3058 47.7821 84.3979 52.7093 82.7315 57.2757L122.843 97.3876C129.873 104.417 129.873 115.814 122.843 122.843C115.814 129.873 104.417 129.873 97.3876 122.843L57.2757 82.7315C52.7093 84.3979 47.7821 85.3058 42.6529 85.3058C19.0964 85.3058 0 66.2094 0 42.6529C0 39.9853 0.579667 36.5757 1.04741 34.1845C1.29603 32.9134 1.54363 31.7819 1.72901 30.968C1.82196 30.5598 1.89996 30.2286 1.95554 29.996C1.98334 29.8797 2.00558 29.7878 2.02133 29.7232L2.03999 29.647L2.04825 29.6135Z" fill="black"/>
</g>
<defs>
<clipPath id="clip0">
<rect width="128" height="128" fill="white"/>
</clipPath>
</defs>
</svg>
