<svg width="128" height="128" viewBox="0 0 128 128" fill="none" xmlns="http://www.w3.org/2000/svg">
<g clip-path="url(#clip0_2384_27)">
<path d="M0.31259 0L49.8133 66.1871L0 120H11.211L54.8224 72.886L90.0593 120H128.211L75.9248 50.09L122.291 0H111.08L70.9157 43.3911L38.464 0H0.31259ZM16.7992 8.25802H34.326L111.721 111.741H94.1947L16.7992 8.25802Z" fill="black"/>
</g>
<defs>
<clipPath id="clip0_2384_27">
<rect width="128" height="128" fill="white"/>
</clipPath>
</defs>
</svg>
