<svg width="128" height="128" viewBox="0 0 128 128" fill="none" xmlns="http://www.w3.org/2000/svg">
<g clip-path="url(#clip0)">
<path d="M24 108.07V117.035H103V108.07H24ZM20 99.105H107C110.314 99.105 113 101.781 113 105.082V120.023C113 123.324 110.314 126 107 126H20C16.6863 126 14 123.324 14 120.023V105.082C14 101.781 16.6863 99.105 20 99.105Z" fill="black"/>
<path d="M74.0268 45.8132H95.568L63.0268 10.5013L30.4855 45.8132H52.0268V77.6887H74.0268V45.8132ZM85.0268 88.6459H41.0268V56.7704H22.6991C16.1907 56.7704 12.4607 49.1695 17.0044 44.239L57.3321 0.47774C60.3765 -2.82591 65.677 -2.82591 68.7215 0.47774L109.049 44.239C113.593 49.1695 109.863 56.7704 103.354 56.7704H85.0268V88.6459Z" fill="black"/>
</g>
<defs>
<clipPath id="clip0">
<rect width="128" height="128" fill="white"/>
</clipPath>
</defs>
</svg>
