<svg width="24" height="24" viewBox="0 0 24 24" fill="none" xmlns="http://www.w3.org/2000/svg">
<g clip-path="url(#clip0_2015_27)">
<path fill-rule="evenodd" clip-rule="evenodd" d="M4.98411 5.59751C4.98411 8.68893 7.46351 11.195 10.522 11.195C13.5805 11.195 16.0599 8.68893 16.0599 5.59751C16.0599 2.50609 13.5805 0 10.522 0C7.46351 0 4.98411 2.50609 4.98411 5.59751ZM10.522 8.95601C8.6869 8.95601 7.19926 7.45236 7.19926 5.59751C7.19926 3.74266 8.6869 2.239 10.522 2.239C12.3571 2.239 13.8447 3.74266 13.8447 5.59751C13.8447 7.45236 12.3571 8.95601 10.522 8.95601Z" fill="black"/>
<path fill-rule="evenodd" clip-rule="evenodd" d="M13.319 23.912C12.5 23.5 11.932 22.4213 11.7562 21.5838C11.1112 21.5862 10.4263 21.5902 9.73866 21.5943C7.63996 21.6068 5.51597 21.6194 4.42226 21.5831C3.25093 21.5441 2.55633 20.6551 2.42102 19.089C2.28884 17.5592 2.78472 15.7952 3.57989 14.8849C4.48414 13.8497 5.24756 13.8015 6.18942 14.3067C6.34326 14.3892 6.79766 14.6731 6.75051 14.6453C8.43383 15.6374 10.1996 15.9239 12 15.5109C12.5 13.5 14.5933 12.1709 14.5933 12.1709C13.4616 13.1094 11.1244 13.5801 10 13.4895C9.13764 13.4201 8.29371 13.1215 7.45672 12.5952C7.42576 12.5758 7.21455 12.4333 7.21669 12.4347C7.06821 12.3357 6.93631 12.2528 6.79328 12.1709C5.07643 11.1886 3.28028 11.3096 1.6814 13.2622C0.506348 14.6973 -0.149105 17.1846 0.0289103 19.3826C0.241138 22.003 1.59148 23.8467 3.93625 23.9299L13.319 23.912Z" fill="black"/>
<path fill-rule="evenodd" clip-rule="evenodd" d="M18.5 22C20.433 22 22 20.433 22 18.5C22 16.567 20.433 15 18.5 15C16.567 15 15 16.567 15 18.5C15 20.433 16.567 22 18.5 22ZM18.5 24C21.5376 24 24 21.5376 24 18.5C24 15.4624 21.5376 13 18.5 13C15.4624 13 13 15.4624 13 18.5C13 21.5376 15.4624 24 18.5 24Z" fill="black"/>
<path d="M17.9351 20.9694H19.029V18.9488H20.9728L21 17.8552H19.029V15.9592H17.9351V17.8552H15.9914L15.9641 18.9488H17.9351V20.9694Z" fill="black"/>
</g>
<defs>
<clipPath id="clip0_2015_27">
<rect width="24" height="24" fill="white"/>
</clipPath>
</defs>
</svg>
