<svg width="128" height="128" viewBox="0 0 128 128" fill="none" xmlns="http://www.w3.org/2000/svg">
<path fill-rule="evenodd" clip-rule="evenodd" d="M94.8054 75.4121C93.2578 74.6645 85.6262 71.0207 84.214 70.5191C82.7921 70.0175 81.7475 69.7715 80.7222 71.2763C79.6872 72.7811 76.7177 76.1693 75.8085 77.1725C74.909 78.1757 74.0094 78.2987 72.4618 77.551C70.9045 76.7939 65.9038 75.2039 59.9939 70.0838C55.3898 66.0899 52.2752 61.1685 51.366 59.6637C50.4664 58.1589 51.2789 57.345 52.043 56.5878C52.7395 55.9159 53.6003 54.837 54.3741 53.9568C55.1479 53.0766 55.4091 52.452 55.9217 51.4393C56.4344 50.4361 56.1829 49.5654 55.7863 48.8083C55.4091 48.0606 52.3042 40.6501 51.0081 37.6405C49.7216 34.6309 48.4352 35.1325 47.526 35.1325C46.6167 35.1325 45.5915 35 44.5565 35C43.5215 35 41.8385 35.3786 40.4263 36.8834C39.0044 38.3882 35 42.0319 35 49.4329C35 56.8339 40.552 63.9983 41.3259 64.992C42.0997 66.0047 52.043 81.6964 67.7996 87.7156C83.5659 93.7443 83.5659 91.7284 86.4 91.4729C89.2437 91.2363 95.5696 87.8386 96.8657 84.3274C98.1618 80.8067 98.1618 77.7971 97.7749 77.1725C97.388 76.5478 96.353 76.1693 94.8054 75.4121ZM12 63.0048C12 74.3802 15.7509 84.9166 22.0957 93.4982L15.4809 112.807L35.8459 106.409C44.2059 111.834 54.2341 115 65.0048 115C94.2216 115 118 91.677 118 63.0048C118 34.323 94.2216 11 65.0048 11C35.7784 11 12 34.323 12 63.0048ZM128 62.8645C128 97.0249 99.8663 124.719 65.1678 124.719C54.1431 124.719 43.7912 121.935 34.7946 117.023L0 128L11.3419 94.8028C5.62289 85.4855 2.32605 74.5469 2.32605 62.8645C2.32605 28.6945 30.4597 1 65.1678 1C99.8663 1 128 28.6945 128 62.8645Z" fill="#121212"/>
</svg>
