<svg width="24" height="24" viewBox="0 0 24 24" fill="none" xmlns="http://www.w3.org/2000/svg">
<path d="M0 8.35596C0.330036 7.52122 1.07696 7.05321 1.73797 6.52651C3.80457 4.87813 6.16318 3.81282 8.77906 3.30263C10.2246 3.02026 11.6846 2.94187 13.1578 3.04089C15.707 3.21233 18.0797 3.93017 20.2843 5.18571C21.4843 5.86917 22.572 6.69566 23.5556 7.65187C23.965 8.04975 24.1082 8.53152 23.9152 9.07564C23.7232 9.61746 23.3129 9.91771 22.7359 9.9828C22.2885 10.0332 21.9209 9.85261 21.5923 9.56291C21.1467 9.16961 20.7054 8.76806 20.2299 8.41143C18.4464 7.07475 16.4394 6.22718 14.2169 5.88293C10.9865 5.38282 7.94857 5.92464 5.11298 7.52168C4.12053 8.08092 2.40884 9.54916 2.40884 9.54916C1.80886 10.1139 1.01734 10.157 0.45914 9.628C0.256799 9.43639 0.15023 9.14898 0.000469469 8.90512C0.000469469 8.72222 0 8.53886 0 8.35596Z" fill="black"/>
<path d="M12.2446 7.48577C15.2937 7.6091 17.852 8.75058 19.9577 10.9784C20.3177 11.3597 20.4639 11.8085 20.3301 12.3318C20.2012 12.8368 19.8811 13.1613 19.3974 13.2883C18.9855 13.3964 18.6019 13.3127 18.2754 13.022C17.8884 12.6772 17.5244 12.3027 17.1234 11.9778C15.9931 11.0614 14.708 10.5093 13.2929 10.3001C11.2449 9.99751 9.32895 10.4073 7.57286 11.5567C7.10664 11.8618 6.68846 12.2496 6.26199 12.617C5.70661 13.0947 5.07245 13.1607 4.56443 12.7692C3.90627 12.2627 3.83518 11.2701 4.46556 10.686C5.02492 10.1676 5.6131 9.67101 6.23905 9.24666C7.74994 8.22284 9.42645 7.67992 11.2168 7.52653C11.5789 7.49567 11.9433 7.49737 12.2455 7.48624L12.2446 7.48577Z" fill="black"/>
<path d="M11.9291 12C13.7823 12.025 15.3228 12.645 16.6077 13.8722C17.1071 14.3494 17.1304 15.092 16.6736 15.5967C16.2317 16.0847 15.469 16.144 14.9502 15.6969C14.4647 15.2782 13.9657 14.8912 13.3429 14.6954C11.8636 14.23 10.5213 14.4759 9.32428 15.4619C9.17893 15.5817 9.04499 15.7203 8.8857 15.8175C8.33854 16.1527 7.64095 16.0129 7.24928 15.5045C6.86605 15.0069 6.9307 14.3122 7.40181 13.8622C8.48262 12.8307 9.76835 12.2217 11.2603 12.043C11.5041 12.0138 11.7508 12.0113 11.9287 12.0004L11.9291 12Z" fill="black"/>
<path d="M11.9994 21C10.8913 21 9.99682 20.1219 10 19.0078C10.0032 17.8849 10.8395 16.9988 12.0014 17C13.1721 17.0012 14.0008 17.8977 14 19.0098C13.9992 20.1271 13.1083 21.0004 11.9994 21Z" fill="black"/>
</svg>
