<svg width="128" height="128" viewBox="0 0 128 128" fill="none" xmlns="http://www.w3.org/2000/svg">
<path fill-rule="evenodd" clip-rule="evenodd" d="M47 43C60.6667 49.6914 74.2456 56.3251 88 63.0576C74.2894 69.7325 60.7018 76.3333 47 83V43ZM111.948 23.6658C96.0784 22.0009 80.0087 21.9927 64.0174 22.0009C48.0261 21.9927 31.9564 22.0009 16.0871 23.6658C9.38922 24.3711 3.82363 29.0951 2.26456 35.5167C0.0261295 44.6366 0 54.6013 0 64C0 73.3987 0 83.3634 2.23843 92.4914C3.7975 98.8967 9.36309 103.629 16.0697 104.334C31.939 105.999 48 106.007 64 105.999C79.9913 106.007 96.061 105.999 111.922 104.334C118.619 103.629 124.194 98.8967 125.762 92.4914C127.991 83.3634 128 73.3987 128 64C128 54.6013 128.017 44.6366 125.788 35.5167C124.22 29.0951 118.654 24.3711 111.948 23.6658Z" fill="black"/>
</svg>
